{
	"objName": "Button5",
	"costumes": [{
			"costumeName": "button5",
			"baseLayerID": -1,
			"baseLayerMD5": "tm111_p02_07_button_05.png",
			"bitmapResolution": 2,
			"rotationCenterX": 53,
			"rotationCenterY": 53
		}],
	"currentCostumeIndex": 0,
	"scratchX": 0,
	"scratchY": 0,
	"scale": 1,
	"direction": 90,
	"rotationStyle": "normal",
	"isDraggable": false,
	"indexInLibrary": 100000,
	"visible": true,
	"spriteInfo": {
	}
}