{
	"objName": "Musician",
	"costumes": [{
			"costumeName": "musician",
			"baseLayerID": -1,
			"baseLayerMD5": "tm111_p01_06_music_musician.png",
			"bitmapResolution": 2,
			"rotationCenterX": 80,
			"rotationCenterY": 123
		}],
	"currentCostumeIndex": 0,
	"scratchX": 0,
	"scratchY": 0,
	"scale": 1,
	"direction": 90,
	"rotationStyle": "normal",
	"isDraggable": false,
	"indexInLibrary": 100000,
	"visible": true,
	"spriteInfo": {
	}
}