{
	"objName": "Violin",
	"sounds": [{
		"soundName": "violin",
		"soundID": -1,
		"md5": "violin.wav",
		"sampleCount": 449820,
		"rate": 44100,
		"format": ""
	}],
	"costumes": [{
			"costumeName": "violin",
			"baseLayerID": -1,
			"baseLayerMD5": "tm111_p01_06_music_violin.png",
			"bitmapResolution": 2,
			"rotationCenterX": 22,
			"rotationCenterY": 65
		}],
	"currentCostumeIndex": 0,
	"scratchX": 0,
	"scratchY": 0,
	"scale": 1,
	"direction": 90,
	"rotationStyle": "normal",
	"isDraggable": false,
	"indexInLibrary": 100000,
	"visible": true,
	"spriteInfo": {
	}
}