{
	"objName": "Spy",
	"costumes": [{
			"costumeName": "spy",
			"baseLayerID": -1,
			"baseLayerMD5": "tm111_p05_19_spy.png",
			"bitmapResolution": 2,
			"rotationCenterX": 93,
			"rotationCenterY": 117
		}],
	"currentCostumeIndex": 0,
	"scratchX": 0,
	"scratchY": 0,
	"scale": 1,
	"direction": 90,
	"rotationStyle": "normal",
	"isDraggable": false,
	"indexInLibrary": 100000,
	"visible": true,
	"spriteInfo": {
	}
}