<?xml version="1.0" encoding="utf-8"?>
<!-- Generator: Adobe Illustrator 21.0.0, SVG Export Plug-In . SVG Version: 6.00 Build 0)  -->
<svg version="1.1" xmlns="http://www.w3.org/2000/svg" xmlns:xlink="http://www.w3.org/1999/xlink" x="0px" y="0px"
	 viewBox="0 0 595.2755737 841.8895874" style="enable-background:new 0 0 595.2755737 841.8895874;" xml:space="preserve">
<style type="text/css">
	.st0{fill:#118F40;}
	
		._x0030__x002E_25_x0020_bl_x0020_keyline_x0020_10{fill:none;stroke:#1F1E21;stroke-width:0.708661;stroke-linecap:round;stroke-linejoin:round;stroke-miterlimit:10;}
	.st1{fill:none;stroke:#1F1E21;stroke-width:1.84252;stroke-linecap:round;stroke-linejoin:round;stroke-miterlimit:10;}
	.st2{fill:none;}
	.st3{fill:#929AA9;}
	.st4{fill:#AFBFC3;}
	.st5{fill:#FFFFFF;}
	.st6{fill:#1F1E21;}
	.st7{fill:none;stroke:#1F1E21;stroke-width:0.708661;stroke-miterlimit:10;}
	.st8{fill:#FAFBFA;}
	.st9{fill:none;stroke:#1F1E21;stroke-width:0.708661;stroke-linecap:round;stroke-linejoin:round;stroke-miterlimit:10;}
</style>
<symbol  id="Bush_Left" viewBox="-43.3007965 -24.3076 86.6016006 48.6152">
	<g>
		<g>
			<path class="st0" d="M-33.8886948-3.5107c8.2988987,8.8944998,13.2383003,21.5576,13.2383003,21.5576
				C-24.1405945,7.5409999-28.2108955,2.3153999-34.9228935-6.1738L-33.8886948-3.5107z"/>
			<path class="st0" d="M-30.4872952,3.1610999c0.2968998,2.2646999,2.3759995,11.4419003,2.3759995,11.4419003L-30.2636948,9.0098
				c-0.4785004-2.8808999,0.7607994-5.5546999,0.4463005-7.9521999L-30.4872952,3.1610999z"/>
			<path class="st0" d="M-27.6679955,8.5640001c0.2968998,2.2660999,1.7266006,9.8296003,1.7266006,9.8296003l-0.5293007-3.7906008
				c0-2.4408998-0.2118988-5.7445993-0.5263996-8.1420994L-27.6679955,8.5640001z"/>
			<path class="st0" d="M-24.1889954,13.3769999c0.216301,1.3808002,3.0513,6.6132002,3.0513,6.6132002l-2.1807003-2.9326
				c0-1.4872999-0.1542988-3.5014-0.3827991-4.9629002L-24.1889954,13.3769999z"/>
			<path class="st0" d="M-21.1688957,18.0751991C-20.5663948,19.2520008-18.407196,24.3076-18.407196,24.3076l-1.2817993-3.5102005
				c-0.3139-1.288599-0.9589005-3.0191002-1.5942001-4.2642002L-21.1688957,18.0751991z"/>
			<path class="st0" d="M-26.0429955,10.3319998c0.2968998,2.2657003,1.7245998,9.8282003,1.7245998,9.8282003l-1.1616001-4.8374004
				c0-2.441,0.4214001-4.6957998,0.1070004-7.0937996L-26.0429955,10.3319998z"/>
			<path class="st0" d="M-24.5228958,3.4872999C-23.1015949,4.3540001-18.0272961,6.8838-18.0272961,6.8838l-3.3505993-2.1947999
				C-23.1503944,3.5234001-26.6991959,4.0630002-28.2030945,3.145L-24.5228958,3.4872999z"/>
			<path class="st0" d="M-21.8563957,6.8838c1.8984013,1.2612004,6.1298008,5.0771003,6.1298008,5.0771003l-3.1630001-2.1396008
				c-2.1865997-1.0692997-5.0517998-2.7089996-7.0615997-4.0429997L-21.8563957,6.8838z"/>
			<path class="st0" d="M-21.836895,13.0879002c1.0361004,0.9341002,3.8652,6.1688995,3.8652,6.1688995l-1.262701-3.4315996
				c-1.2455997-0.8115005-2.8426991-2.0370998-3.9393997-3.0254002L-21.836895,13.0879002z"/>
			<path class="st0" d="M-23.2728958,9.4727001c1.5785999,1.0082998,5.9643002,5.8500996,5.9643002,5.8500996l-2.6327991-3.8765001
				c-1.8154011-0.8573999-3.4696999-1.1601992-5.1387005-2.2284994L-23.2728958,9.4727001z"/>
			<path class="st0" d="M-32.9667969,0.3662c0.2969017,2.2646999,1.5996017,12.7367992,1.5996017,12.7367992l-1.3759995-6.8885999
				C-33.2216949,3.335-31.9813957,0.6602-32.2958946-1.7373L-32.9667969,0.3662z"/>
			<path class="st0" d="M-34.9667969-1.2637c0.2969017,2.2656999,1.5996017,12.7364006,1.5996017,12.7364006l-1.3759995-6.8868003
				C-35.2216949,1.7041-33.9823952-0.9697-34.2968941-3.3671999L-34.9667969-1.2637z"/>
			<path class="st0" d="M-29.4022961-0.5566c1.5483017,0.6054,10.1796017,4.2856002,10.1796017,4.2856002L-24.0438957,0.606
				c-1.9482994-0.8374-5.3624001-0.4527-7.0009995-1.0943L-29.4022961-0.5566z"/>
			<path class="st0" d="M-29.9706955-3.3188C-28.2440948-2.5752001-20.2431946,0.7881-20.2431946,0.7881l-5.1298008-2.7451
				c-2.1718998-1.0497999-4.6133003-0.2909999-6.441-1.0790999L-29.9706955-3.3188z"/>
		</g>
		<g>
			<path class="st0" d="M-41.1073952-9.8212996c17.3309994-2.8271008,35.7656021-10.6025,35.7656021-10.6025
				c-13.4701996,6.6610994-22.7578011,8.7440996-37.9589996,12.0790997L-41.1073952-9.8212996z"/>
			<path class="st0" d="M-29.8515949-13.5609999c2.3985004-1.6763,13.0898991-8.0029993,13.0898991-8.0029993l-7.4980984,3.3891983
				c-3.1640015,2.0791016-4.2314014,4.8945007-6.7715015,6.6680012L-29.8515949-13.5609999z"/>
			<path class="st0" d="M-21.787096-16.4482002c2.4004002-1.674799,10.8945007-7.0415001,10.8945007-7.0415001l-4.0507994,2.7870998
				c-2.230401,1.9755001-5.4823999,4.5366001-8.0214014,6.3086004L-21.787096-16.4482002z"/>
			<path class="st0" d="M-13.5312948-18.5088005c1.5019999-1.0038986,9.4263-3.7440987,9.4263-3.7440987l-5.0970998,1.2245998
				c-1.3608999,1.2040997-3.3702002,2.7509995-4.96,3.8134995L-13.5312948-18.5088005z"/>
			<path class="st0" d="M-5.8876953-20.7192001C-4.1459951-21.3530006,2.8691049-24.3076,2.8691049-24.3076l-4.6289001,2.1650009
				c-1.5254,0.8774986-3.8221998,1.9375-5.6659999,2.6093998L-5.8876953-20.7192001z"/>
			<path class="st0" d="M-18.3710957-17.0209999c2.3994007-1.6772003,10.8945007-7.0410004,10.8945007-7.0410004
				l-5.7069998,3.2993011c-2.2305002,1.9755993-3.8261995,4.0204983-6.3662004,5.794899L-18.3710957-17.0209999z"/>
			<path class="st0" d="M-22.9389954-10.6859999c2.3687,0.0473003,10.3091002,0.6709003,10.3091002,0.6709003L-18.3515949-10
				c-3.0321999,0.0067997-6.4764996-2.2959003-8.9824009-2.3457003L-22.9389954-10.6859999z"/>
			<path class="st0" d="M-16.8778954-12.0292997c3.2596998-0.0205002,11.4375-0.8818007,11.4375-0.8818007l-5.4619002,0.0664005
				c-3.4034004-0.2852001-8.0791006-0.4673004-11.5274-0.4453001L-16.8778954-12.0292997z"/>
			<path class="st0" d="M-11.1889954-17.0370998c2.0044003-0.2089996,9.9263-2.9561005,9.9263-2.9561005l-4.5381002,2.1114006
				c-2.1191001,0.0004997-5.0146003,0.1518002-7.1327996,0.3740005L-11.1889954-17.0370998z"/>
			<path class="st0" d="M-16.0829945-14.8682003c2.6727991,0.0152006,11.9589996-1.5946999,11.9589996-1.5946999l-6.461,1.7510004
				c-2.7958994-0.2627001-4.9071999-0.8887005-7.7353001-0.9028006L-16.0829945-14.8682003z"/>
			<path class="st0" d="M-35.1542969-12.6029997c2.3984032-1.6787004,13.410202-9.4609995,13.410202-9.4609995l-7.8199005,4.844799
				c-3.1626015,2.0791006-4.2299004,4.8950005-6.7700005,6.6683998L-35.1542969-12.6029997z"/>
			<path class="st0" d="M-38.8622932-12.3397999c2.3993988-1.6758003,13.4110985-9.460001,13.4110985-9.460001l-7.8188019,4.8467007
				c-3.1635971,2.0801001-4.2319984,4.8935003-6.7709999,6.6675005L-38.8622932-12.3397999z"/>
			<path class="st0" d="M-32.0448952-9.9834003c2.2714996,0.3262005,15.2040997,1.8926001,15.2040997,1.8926001
				l-8.1982994-0.0121994c-2.9267006-0.3481998-6.3612995-2.4556007-8.7656002-2.8003006L-32.0448952-9.9834003z"/>
			<path class="st0" d="M-35.1991959-8.0488005C-32.6049957-7.7402-20.6581955-6.2490001-20.6581955-6.2490001l-8.1991997-0.4790001
				c-3.3671989-0.2953997-5.3809013-2.1929002-8.1269989-2.5181003L-35.1991959-8.0488005z"/>
		</g>
		<g>
			<path class="st0" d="M-20.024395-4.7919998c13.5116997-1.9922004,27.7304993-7.0560999,27.7304993-7.0560999
				c-10.5,4.6908998-17.7413006,6.1590996-29.5928001,8.5063L-20.024395-4.7919998z"/>
			<path class="st0" d="M-11.4013948-7.0151c1.8701-1.1802001,10.2060995-5.6362996,10.2060995-5.6362996l-5.8486004,2.3877001
				C-9.5077953-8.7997999-10.3407955-6.8174-12.3202953-5.5688L-11.4013948-7.0151z"/>
			<path class="st0" d="M-5.1132951-9.0488005c1.8701-1.1782999,8.4941998-4.9574995,8.4941998-4.9574995l-3.1582,1.9643002
				c-1.7393,1.3886995-4.2754002,3.1913996-6.2558999,4.4414001L-5.1132951-9.0488005z"/>
			<path class="st0" d="M1.3223048-10.4980001c1.1709-0.7070999,7.3495998-2.6377001,7.3495998-2.6377001l-3.9745998,0.8622999
				c-1.0605998,0.8476-2.6269999,1.9375-3.8671999,2.6855001L1.3223048-10.4980001z"/>
			<path class="st0" d="M7.2812047-12.0557003c1.3583999-0.4471998,6.8262-2.5262995,6.8262-2.5262995l-3.6083994,1.5233994
				C9.3096046-12.4404001,7.5200047-11.6938,6.0811048-11.2207003L7.2812047-12.0557003z"/>
			<path class="st0" d="M-2.451195-9.4525995c1.8710999-1.1802006,8.4932003-4.9585009,8.4932003-4.9585009l-4.4492002,2.3252001
				C-0.1478951-10.6953001-1.3895952-9.2549-3.3690951-8.0063L-2.451195-9.4525995z"/>
			<path class="st0" d="M-6.010695-4.9902c1.8436999,0.0341001,8.0361004,0.4726,8.0361004,0.4726l-4.4624,0.0098
				c-2.3618002,0.0068002-5.0474-1.6152-7.0020003-1.6514001L-6.010695-4.9902z"/>
			<path class="st0" d="M-1.2851951-5.9359999C1.2549049-5.9512,7.6309047-6.5566001,7.6309047-6.5566001l-4.2598,0.0458999
				c-2.6524-0.2001996-6.2968998-0.3290997-8.9863005-0.3134999L-1.2851951-5.9359999z"/>
			<path class="st0" d="M3.1504049-9.4629002c1.5605001-0.1484003,7.7362995-2.0819998,7.7362995-2.0819998L7.3496051-10.0576
				c-1.6523004,0.0010004-3.9082003,0.1064005-5.5615001,0.2627001L3.1504049-9.4629002z"/>
			<path class="st0" d="M-0.6669951-7.9359999c2.082,0.0102,9.3241997-1.1226006,9.3241997-1.1226006L3.6201048-7.8252001
				c-2.1820998-0.1855001-3.8281-0.6259995-6.0311999-0.6357002L-0.6669951-7.9359999z"/>
			<path class="st0" d="M-15.5351954-6.3418002c1.8682003-1.1791997,10.4551001-6.6610999,10.4551001-6.6610999
				l-6.0957003,3.4120998c-2.4667997,1.4647999-3.2987995,3.4468002-5.2792997,4.6968002L-15.5351954-6.3418002z"/>
			<path class="st0" d="M-18.4257946-6.1543002c1.8701-1.1796999,10.4550991-6.6620994,10.4550991-6.6620994l-6.0956998,3.4130993
				c-2.4668007,1.4643002-3.2987995,3.4472003-5.2793007,4.6963005L-18.4257946-6.1543002z"/>
			<path class="st0" d="M-13.1112947-4.4951c1.7704992,0.2294998,11.8534994,1.3329999,11.8534994,1.3329999L-7.649395-3.1719
				c-2.2821999-0.2440999-4.9590006-1.7285001-6.8340006-1.9721L-13.1112947-4.4951z"/>
			<path class="st0" d="M-15.5702953-3.1328001C-13.546895-2.915-4.2333951-1.8662-4.2333951-1.8662l-6.3945003-0.3369
				c-2.625-0.2079999-4.1933994-1.543-6.3349991-1.7735L-15.5702953-3.1328001z"/>
		</g>
		<g>
			<path class="st0" d="M1.6523049-2.0557001c12.2354002-1.7119,25.1113987-6.0672998,25.1113987-6.0672998
				C17.2549057-4.0889001,10.6973047-2.8262-0.0331951-0.8066L1.6523049-2.0557001z"/>
			<path class="st0" d="M9.4609051-3.9668c1.6933994-1.0146,9.2402992-4.8472004,9.2402992-4.8472004L13.408205-6.7607002
				C11.1748047-5.5009999,10.4209051-3.7969,8.6289053-2.7217L9.4609051-3.9668z"/>
			<path class="st0" d="M15.1543045-5.7147999C16.8477039-6.73,22.845705-9.9799995,22.845705-9.9799995l-2.8593998,1.6889992
				c-1.575201,1.1953006-3.8710995,2.7461004-5.6640005,3.8203006L15.1543045-5.7147999z"/>
			<path class="st0" d="M20.9824047-6.9639001c1.0596008-0.6073999,6.6543007-2.2674994,6.6543007-2.2674994L24.038105-8.4902
				c-0.960001,0.7294998-2.3799,1.6669998-3.5009995,2.3105001L20.9824047-6.9639001z"/>
			<path class="st0" d="M26.3779049-8.3027c1.2294998-0.3843002,6.1816998-2.1738997,6.1816998-2.1738997L29.2900047-9.165
				c-1.0741997,0.5321999-2.6952991,1.1738-3.9979992,1.5819998L26.3779049-8.3027z"/>
			<path class="st0" d="M17.5654049-6.0619998c1.6944008-1.0161004,7.6905003-4.2661004,7.6905003-4.2661004l-4.0293007,2
				C19.6523056-7.1328001,18.525404-5.8940001,16.7334042-4.8188L17.5654049-6.0619998z"/>
			<path class="st0" d="M14.3418045-2.2246001C16.0137043-2.1963,21.6182041-1.8188,21.6182041-1.8188l-4.0390987,0.0092
				c-2.1411009,0.0049-4.5713005-1.3906001-6.3408003-1.4204L14.3418045-2.2246001z"/>
			<path class="st0" d="M18.6211052-3.0371001c2.299799-0.0137,8.0723-0.5351999,8.0723-0.5351999L22.837904-3.5322001
				c-2.4032993-0.1729-5.7030983-0.2831998-8.1366987-0.2704999L18.6211052-3.0371001z"/>
			<path class="st0" d="M22.6367054-6.0723c1.4140987-0.1269002,7.0058994-1.7909999,7.0058994-1.7909999l-3.2045994,1.2802997
				c-1.4946003,0.0010004-3.5376015,0.0908003-5.0337009,0.2256002L22.6367054-6.0723z"/>
			<path class="st0" d="M19.1816044-4.7578001c1.8858013,0.0088,8.4405003-0.9657998,8.4405003-0.9657998l-4.5611,1.0615001
				C21.087904-4.8223,19.5977039-5.2026,17.6016045-5.2090001L19.1816044-4.7578001z"/>
			<path class="st0" d="M5.716805-3.3866999c1.6933999-1.0156,9.4678001-5.7315006,9.4678001-5.7315006L9.6641045-6.1816001
				c-2.2324996,1.2578001-2.9863997,2.9638002-4.7792997,4.039L5.716805-3.3866999z"/>
			<path class="st0" d="M3.0996048-3.2265999c1.6924002-1.0146,9.4678001-5.7295008,9.4678001-5.7295008L7.046905-6.0209999
				C4.813005-4.7617002,4.0596051-3.0566001,2.2676048-1.9814L3.0996048-3.2265999z"/>
			<path class="st0" d="M7.9121051-1.7988C9.515605-1.6016001,18.6450043-0.6523,18.6450043-0.6523l-5.7875996-0.0083
				c-2.0674-0.2105-4.4902-1.4864001-6.1875-1.6958001L7.9121051-1.7988z"/>
			<path class="st0" d="M5.6846051-0.626c1.8329997,0.1856,10.2665997,1.0889,10.2665997,1.0889l-5.7891006-0.291
				C7.7852049-0.0063,6.3633051-1.1553,4.4248047-1.3516001L5.6846051-0.626z"/>
		</g>
		<g>
			<path class="st0" d="M14.0010052,2.8359001C25.0801048,1.3633,36.7402039-2.3838,36.7402039-2.3838
				C28.1299057,1.0879,22.1924057,2.1724,12.4746046,3.9102001L14.0010052,2.8359001z"/>
			<path class="st0" d="M21.0723057,1.1924c1.5317001-0.8731,8.3656998-4.1703997,8.3656998-4.1703997L24.6450043-1.2119
				C22.6240044-0.1289,21.9414043,1.3389,20.3184052,2.2627001L21.0723057,1.1924z"/>
			<path class="st0" d="M26.2271042-0.311C27.7617054-1.186,33.1914063-3.9814,33.1914063-3.9814l-2.5893021,1.4531
				C29.1768055-1.499,27.0977039-0.165,25.4746056,0.7588L26.2271042-0.311z"/>
			<path class="st0" d="M31.5049057-1.3857c0.9598999-0.5235,6.0262985-1.9512,6.0262985-1.9512l-3.2612,0.6377001
				C33.4023056-2.0713,32.1172066-1.2656,31.1016045-0.7119L31.5049057-1.3857z"/>
			<path class="st0" d="M36.3906059-2.5371001c1.1133003-0.332,5.5976982-1.8710997,5.5976982-1.8710997L39.0293045-3.2793
				c-0.9745979,0.457-2.4423981,1.0102999-3.6211014,1.3594L36.3906059-2.5371001z"/>
			<path class="st0" d="M28.4111042-0.6113c1.5342007-0.8731,6.9629002-3.6690001,6.9629002-3.6690001l-3.6473999,1.7193
				C30.3008041-1.5317,29.2812042-0.4658,27.6572056,0.46L28.4111042-0.6113z"/>
			<path class="st0" d="M25.4922047,2.6903999c1.5137005,0.0240002,6.5888996,0.3506,6.5888996,0.3506L28.4238052,3.0469
				c-1.9384003,0.0049-4.1406002-1.1953-5.7422009-1.2217001L25.4922047,2.6903999z"/>
			<path class="st0" d="M29.3672047,1.9902C31.4492054,1.9809999,36.6768036,1.5308,36.6768036,1.5308l-3.4921989,0.0346
				c-2.174799-0.1474-5.1646004-0.2431-7.3682003-0.2314L29.3672047,1.9902z"/>
			<path class="st0" d="M33.002903-0.6191c1.2803001-0.1089,6.3448029-1.5401,6.3448029-1.5401l-2.9004021,1.0996
				c-1.3554993,0.001-3.2050972,0.0796-4.5605984,0.1949L33.002903-0.6191z"/>
			<path class="st0" d="M29.8740044,0.5103c1.7070999,0.0083,7.6445999-0.8296,7.6445999-0.8296l-4.1298981,0.9121
				c-1.7881012-0.1358-3.1397018-0.4629-4.9453011-0.4707L29.8740044,0.5103z"/>
			<path class="st0" d="M17.6816044,1.6904c1.5342007-0.873,8.5733013-4.9301,8.5733013-4.9301l-4.9981003,2.5258
				c-2.0223999,1.084-2.7049999,2.5518-4.3281002,3.4742L17.6816044,1.6904z"/>
			<path class="st0" d="M15.3110046,1.8291C16.845705,0.957,23.8848057-3.1006,23.8848057-3.1006L18.8867054-0.5752
				C16.8652058,0.5078,16.1816044,1.9746,14.5586052,2.8994L15.3110046,1.8291z"/>
			<path class="st0" d="M19.6699047,3.0562c1.4512005,0.1703999,9.7187996,0.9877,9.7187996,0.9877l-5.2402992-0.0078001
				c-1.8710995-0.1801-4.0673008-1.2793-5.6035004-1.4598999L19.6699047,3.0562z"/>
			<path class="st0" d="M17.6543045,4.0654001c1.6567001,0.1601996,9.2949009,0.9365997,9.2949009,0.9365997l-5.2431011-0.2480998
				C19.5557041,4.5995998,18.2676048,3.6099,16.5117054,3.4403999L17.6543045,4.0654001z"/>
		</g>
		<g>
			<path class="st0" d="M-16.8231945,0.147C-9.2099953,6.4110999-2.932595,16.1299-2.932595,16.1299
				C-7.0116949,7.9512-10.8573952,4.1718998-17.1835957-1.9561L-16.8231945,0.147z"/>
			<path class="st0" d="M-12.5209951,5.1469998c0.5258999,1.8174,3.3339996,9.0820007,3.3339996,9.0820007l-2.4008999-4.3178997
				c-0.7470999-2.3027005-0.1279001-4.6474004-0.6849995-6.5722003L-12.5209951,5.1469998z"/>
			<path class="st0" d="M-9.6259947,9.2256002c0.5274,1.8212996,2.6210995,7.8417997,2.6210995,7.8417997l-0.9042997-3.0410004
				c-0.3174-2.0009995-0.9101-4.6806993-1.4667997-6.6083994L-9.6259947,9.2256002z"/>
			<path class="st0" d="M-6.291995,12.7402c0.3477001,1.1055002,3.2333999,5.0440006,3.2333999,5.0440006l-2.0780997-2.1348009
				c-0.1934004-1.2196999-0.5742002-2.8505993-0.9414001-4.0205002L-6.291995,12.7402z"/>
			<path class="st0" d="M-3.3300951,16.2178001c0.6201,0.8896008,2.9561,4.7670994,2.9561,4.7670994l-1.4521999-2.7182999
				c-0.4111-1.0165997-1.1377-2.3554993-1.7949001-3.2982998L-3.3300951,16.2178001z"/>
			<path class="st0" d="M-8.1308947,10.4736004c0.5244994,1.8202991,2.6191998,7.8403988,2.6191998,7.8403988L-7.0438952,14.4937
				c-0.3164997-2-0.2823-3.9004002-0.8389001-5.8256998L-8.1308947,10.4736004z"/>
			<path class="st0" d="M-7.8358951,4.6777c1.2186999,0.5352001,5.4969997,1.9825001,5.4969997,1.9825001l-2.8925002-1.3868003
				c-1.5323-0.7353001-4.2237,0.1436-5.5126996-0.4228001L-7.8358951,4.6777z"/>
			<path class="st0" d="M-5.3183951,7.1318002C-3.677695,7.9312,0.1094049,10.5370998,0.1094049,10.5370998L-2.628895,9.1738005
				c-1.8408-0.6074009-4.2832003-1.5976005-6.0215006-2.4428005L-5.3183951,7.1318002z"/>
			<path class="st0" d="M-4.5009952,12.2129002c0.9297001,0.6377001,3.8106,4.5809994,3.8106,4.5809994l-1.4287-2.6585999
				c-1.0723-0.5092993-2.4765999-1.3178997-3.4579999-1.9937L-4.5009952,12.2129002z"/>
			<path class="st0" d="M-6.0858951,9.4277c1.3593001,0.6332998,5.3989,4.0595999,5.3989,4.0595999l-2.5493002-2.8525
				c-1.5243998-0.4790001-2.8515997-0.5225-4.2890997-1.1924L-6.0858951,9.4277z"/>
			<path class="st0" d="M-14.812995,3.1602001c0.5258999,1.8207998,2.8989,10.2402,2.8989,10.2402l-1.9647999-5.4746003
				C-14.6259947,5.625-14.0077953,3.2802999-14.5639954,1.354L-14.812995,3.1602001z"/>
			<path class="st0" d="M-16.5800953,2.0713c0.5254002,1.8202999,2.8975,10.2416992,2.8975,10.2416992l-1.9652996-5.4750996
				c-0.7480993-2.3027-0.1275005-4.6465001-0.6850996-6.5742002L-16.5800953,2.0713z"/>
			<path class="st0" d="M-12.1581955,1.9644001c1.2822008,0.3076,8.4785004,2.2562997,8.4785004,2.2562997l-4.1561999-1.9638999
				c-1.6259999-0.4438-4.2324996,0.2901001-5.5918002-0.0332L-12.1581955,1.9644001z"/>
			<path class="st0" d="M-12.9599953-0.228C-11.5175953,0.1689-4.8563952,1.938-4.8563952,1.938l-4.3487-1.6177
				c-1.8261995-0.5913-3.6279001,0.3291-5.1512995-0.0893L-12.9599953-0.228z"/>
		</g>
		<g>
			<path class="st0" d="M-1.7353951,1.377C3.2812049,6.6099,7.1152048,14.3848,7.1152048,14.3848
				C4.7471051,7.9180002,2.2539048,4.8062-1.8549951-0.2432L-1.7353951,1.377z"/>
			<path class="st0" d="M1.0029049,5.4433999C1.2568049,6.8583999,2.779305,12.5527,2.779305,12.5527l-1.4277-3.4287004
				C0.9727049,7.3262,1.5684049,5.585,1.3008049,4.0858998L1.0029049,5.4433999z"/>
			<path class="st0" d="M2.798805,8.7236004c0.2538998,1.4150991,1.3461998,6.1210995,1.3461998,6.1210995L3.703105,12.4790001
				c-0.0937002-1.54-0.3379002-3.6147003-0.6074002-5.1128001L2.798805,8.7236004z"/>
			<path class="st0" d="M4.9434047,11.6006002c0.1738,0.8622999,1.9707003,4.0331993,1.9707003,4.0331993l-1.3399-1.7509995
				C5.5176048,12.9442997,5.3521047,11.6812,5.1670051,10.7700005L4.9434047,11.6006002z"/>
			<path class="st0" d="M6.8242049,14.4267998c0.3838,0.7147999,1.7940001,3.8066006,1.7940001,3.8066006l-0.8565001-2.1571999
				C7.5371051,15.2783003,7.1074047,14.2167997,6.7002048,13.46L6.8242049,14.4267998z"/>
			<path class="st0" d="M3.7812049,9.7636995c0.2539999,1.4160004,1.3476999,6.1216002,1.3476999,6.1216002l-0.8389001-2.9986
				c-0.0927-1.5389996,0.0577002-2.9813995-0.2118998-4.4794998L3.7812049,9.7636995z"/>
			<path class="st0" d="M4.3760047,5.3789001c0.8349004,0.4804997,3.789,1.8456998,3.789,1.8456998L6.1953049,5.9921999
				C5.1504049,5.3389001,3.1719048,5.8389001,2.2891049,5.3291001L4.3760047,5.3789001z"/>
			<path class="st0" d="M6.0098047,7.3994002c1.1162,0.7090001,3.6464005,2.9233994,3.6464005,2.9233994L7.7920051,9.1171999
				C6.5186048,8.5430002,4.8428049,7.6387,3.659205,6.8877001L6.0098047,7.3994002z"/>
			<path class="st0" d="M6.2568049,11.3129997c0.6191998,0.5410004,2.4141002,3.7139006,2.4141002,3.7139006L7.828105,12.9198999
				c-0.7323999-0.4554996-1.6796999-1.1562004-2.3359003-1.7294998L6.2568049,11.3129997z"/>
			<path class="st0" d="M5.3096051,9.0966997c0.9276996,0.5644007,3.5840001,3.4189005,3.5840001,3.4189005l-1.6309004-2.3266001
				c-1.0566001-0.4566002-2-0.5727997-2.9815001-1.1714001L5.3096051,9.0966997z"/>
			<path class="st0" d="M-0.5009951,3.7939c0.2549,1.4161,1.3877,7.9599996,1.3877,7.9599996l-1.0381-4.2811995
				c-0.3799-1.7959003,0.2168-3.5391002-0.0517-5.0367002L-0.5009951,3.7939z"/>
			<path class="st0" d="M-1.6903951,2.8559999c0.2534,1.4159999,1.3877,7.9614,1.3877,7.9614l-1.0381-4.2813001
				c-0.3799-1.7958999,0.2148-3.5389998-0.0518-5.0360999L-1.6903951,2.8559999z"/>
			<path class="st0" d="M1.4727049,3.0488c0.8954999,0.3111,5.8994002,2.2392998,5.8994002,2.2392998l-2.835-1.7489998
				C3.4062049,3.0985999,1.4971049,3.4971001,0.5488049,3.168L1.4727049,3.0488z"/>
			<path class="st0" d="M1.0469049,1.334C2.048805,1.7236,6.6846051,3.4809999,6.6846051,3.4809999l-2.9966002-1.5
				c-1.2622001-0.563-2.6089001,0.0268002-3.6694-0.3863L1.0469049,1.334z"/>
		</g>
		<g>
			<path class="st0" d="M10.3926048,4.1240001c5.3261003,4.4971004,9.1385994,10.9463005,9.1385994,10.9463005
				c-2.2411995-5.3125-4.8534994-7.9541001-9.1620989-12.2475004L10.3926048,4.1240001z"/>
			<path class="st0" d="M13.2168045,7.5439c0.1914005,1.1451001,1.5254002,5.7851996,1.5254002,5.7851996l-1.3817997-2.8270998
				C13.0527048,9.0448999,13.8496046,7.6924,13.6450052,6.4809999L13.2168045,7.5439z"/>
			<path class="st0" d="M15.0273046,10.2754002c0.1905003,1.1464996,1.107501,4.9707003,1.107501,4.9707003l-0.339901-1.9170008
				c0-1.2343998-0.1357002-2.9042997-0.3387995-4.1161995L15.0273046,10.2754002z"/>
			<path class="st0" d="M17.260704,12.71c0.1387005,0.6971998,1.9580002,3.3436995,1.9580002,3.3436995l-1.3993988-1.4833994
				c0-0.7518997-0.0986004-1.7705002-0.2451-2.5093002L17.260704,12.71z"/>
			<path class="st0" d="M19.1992054,15.085c0.3866997,0.5946999,1.7724991,3.1512995,1.7724991,3.1512995l-0.8223-1.7733994
				c-0.2012005-0.6533003-0.6152-1.5269003-1.0254002-2.1571999L19.1992054,15.085z"/>
			<path class="st0" d="M16.0703049,11.1698999c0.1895008,1.1441002,1.1074009,4.9688005,1.1074009,4.9688005l-0.7461014-2.4453001
				c0-1.2334003,0.2695999-2.375,0.0674-3.5874004L16.0703049,11.1698999z"/>
			<path class="st0" d="M17.0469055,7.7090001c0.9110985,0.4380002,4.1688995,1.7168002,4.1688995,1.7168002l-2.1504002-1.1104002
				c-1.1385994-0.5888-3.4169998-0.3154001-4.3817997-0.7802L17.0469055,7.7090001z"/>
			<path class="st0" d="M18.7578049,9.4258003c1.2187996,0.6381998,3.9346008,2.5674,3.9346008,2.5674l-2.0303001-1.0820999
				C19.2578049,10.3701,17.418005,9.5430002,16.1289043,8.8662004L18.7578049,9.4258003z"/>
			<path class="st0" d="M18.7686043,12.5629997c0.6660004,0.4722004,2.4824009,3.1196003,2.4824009,3.1196003L20.4404049,13.9473
				c-0.7978001-0.4102001-1.8251991-1.0292997-2.5282993-1.5292997L18.7686043,12.5629997z"/>
			<path class="st0" d="M17.8496056,10.7343998c1.0116997,0.5107002,3.8271999,2.9590006,3.8271999,2.9590006l-1.6895008-1.9610004
				c-1.1660004-0.4326-2.227499-0.5853996-3.3003006-1.1264L17.8496056,10.7343998z"/>
			<path class="st0" d="M11.6240053,6.1299c0.1924,1.1455002,1.0282993,6.4404001,1.0282993,6.4404001l-0.8836994-3.4823999
				c-0.3067007-1.4570003,0.4891996-2.8096004,0.2880001-4.0215001L11.6240053,6.1299z"/>
			<path class="st0" d="M10.3418045,5.3056998c0.1904001,1.1455002,1.0273008,6.4404006,1.0273008,6.4404006l-0.8847008-3.4824009
				C10.1777048,6.8062,10.9736052,5.4541001,10.7700052,4.2421999L10.3418045,5.3056998z"/>
			<path class="st0" d="M13.9141045,5.6630998c0.9941006,0.3066001,6.5332012,2.1670003,6.5332012,2.1670003l-3.0952015-1.5781002
				c-1.25-0.4238997-3.4399996-0.2290998-4.4926996-0.5541997L13.9141045,5.6630998z"/>
			<path class="st0" d="M13.5488052,4.2666001c1.1083994,0.3759999,6.2432003,2.0766997,6.2432003,2.0766997l-3.2930012-1.3891997
				C15.1040049,4.4238,13.5391045,4.8076,12.3652048,4.4092002L13.5488052,4.2666001z"/>
		</g>
		<g>
			<path class="st0" d="M22.3623047,7.2143998c9.2558994,2.0376,17.4735985,6.5268006,17.4735985,6.5268006
				c-5.579998-4.0674-10.3368988-5.4746008-18.1444988-7.7373004L22.3623047,7.2143998z"/>
			<path class="st0" d="M27.7812042,9.2665997c0.8164997,0.9970999,4.8702011,4.8046999,4.8702011,4.8046999l-3.2217007-2.0868998
				c-1.125-1.2421999-0.7416992-2.8373995-1.6054993-3.8926001L27.7812042,9.2665997z"/>
			<path class="st0" d="M31.5200043,11.0888996c0.8179016,0.9970007,3.9160004,4.2109003,3.9160004,4.2109003l-1.3959999-1.6611004
				c-0.607399-1.1576996-1.6113014-2.6689997-2.4769993-3.7245998L31.5200043,11.0888996z"/>
			<path class="st0" d="M35.6719055,12.4580002c0.527298,0.5977001,4.2362976,2.3358994,4.2362976,2.3358994l-2.5800972-0.8182993
				c-0.3720016-0.7069998-1.0049019-1.6216002-1.5634995-2.2559004L35.6719055,12.4580002z"/>
			<path class="st0" d="M39.4043045,13.8915997c0.8036995,0.4014006,3.8964996,2.2324009,3.8964996,2.2324009l-1.9628983-1.3291006
				c-0.5869026-0.5312004-1.5659027-1.1806002-2.4160004-1.6044998L39.4043045,13.8915997z"/>
			<path class="st0" d="M33.3379059,11.5010004c0.8173981,0.9960995,3.9160004,4.2098999,3.9160004,4.2098999l-2.1929016-1.9902
				c-0.6078987-1.1577005-0.8148994-2.3397999-1.6791992-3.3955002L33.3379059,11.5010004z"/>
			<path class="st0" d="M32.9209061,7.8505998c1.4208984,0.0371003,6.3544998-0.0966997,6.3544998-0.0966997l-3.3887024-0.1610999
				c-1.794899-0.086-4.6688995,1.1034994-6.1737995,1.0643997L32.9209061,7.8505998z"/>
			<path class="st0" d="M36.0293045,8.7602997C37.9541054,8.8593998,42.4922066,9.5576,42.4922066,9.5576l-3.214901-0.1815996
				C37.1562042,9.4424,34.3174057,9.4180002,32.280304,9.3140001L36.0293045,8.7602997z"/>
			<path class="st0" d="M37.592804,11.7011995c1.1123009,0.1699009,4.8174019,1.9101009,4.8174019,1.9101009l-1.9277992-1.2973003
				c-1.2568016-0.0562-2.9194031-0.2173004-4.0957031-0.3970003L37.592804,11.7011995z"/>
			<path class="st0" d="M35.4746056,10.3622999c1.588398,0.0644999,6.5155983,1.2069998,6.5155983,1.2069998l-3.2001991-1.1468992
				c-1.7528992,0.0712996-3.2313995,0.3627996-4.9140015,0.2953997L35.4746056,10.3622999z"/>
			<path class="st0" d="M24.9824047,8.5928001c0.8164005,0.9966002,4.5331993,5.6239996,4.5331993,5.6239996l-2.8846989-2.9071999
				c-1.125-1.2411995-0.7403011-2.8368998-1.6055012-3.8906999L24.9824047,8.5928001z"/>
			<path class="st0" d="M22.8789043,8.3457003c0.8184013,0.9970999,4.5352001,5.6239996,4.5352001,5.6239996l-2.8857994-2.9056997
				c-1.125-1.2427006-0.7411995-2.8383999-1.6054001-3.8921003L22.8789043,8.3457003z"/>
			<path class="st0" d="M27.7734051,7.2157998c1.4648991-0.1201,9.700201-0.6464996,9.700201-0.6464996l-4.8661995-0.2119002
				C30.7461052,6.4727001,27.9473057,7.5537,26.3970051,7.6812L27.7734051,7.2157998z"/>
			<path class="st0" d="M26.6021042,6.0546999c1.648901-0.1015997,9.2719002-0.6113,9.2719002-0.6113L30.8398056,5.4902
				c-2.1025009,0.0738001-3.9824009,1.0762-5.7294006,1.1845999L26.6021042,6.0546999z"/>
		</g>
	</g>
</symbol>
<g id="Background">
</g>
<g id="scans">
</g>
<g id="Guides">
</g>
<g id="approval_box">
</g>
<g id="Foreground">
</g>
<g id="Objects">
</g>
<g id="Text">
</g>
<g id="Line">
</g>
<g id="all">
	<path class="st1" d="M106.5018997,74.4602966c-7,2.6666031-7.7917023,10.3333054-7.7917023,10.3333054"/>
	<path class="st1" d="M104.2117996,74.2538986C97.3690033,77.3013992,97,85,97,85"/>
	<path class="st1" d="M101.6875992,90.9384003c14.5766983,4.5073013,31.9937973-1.924202,30.3559036-4.2320023
		c0,0,4.5833893-0.625,8.125-1.875c5.4565887-1.9258957,10.8921967-4.9934006,12.3578949-7.389801
		c0.0984039-3.3455963-16.9884033-7.8959961-41.1147003-6.5996933c-4.8345947-4.0908051-17.0552979-11.1531029-29.3264999-9.1772041
		c4.9454041,4.3929024,6.5056992,10.4340019,6.9962997,14.0172005c-7.6741943,2.4456024-13.3983994,7.5062027-16.9825974,14.8144989
		c-3.6298981-0.6715012-9.8124008-1.1753006-15.9304008,1.2933044
		c19.9166985,0.4166946,19.8334007,24.6666946,19.8334007,24.6666946c4.3776016-7.6607971,1.129097-22.0670013,0.7098007-23.8226013
		c2.498497-3.1357956,9.185997-3.9482956,11.185997-3.8857956"/>
	<path class="st1" d="M88.5851974,87.9980011c0,0-4.25,4.875-8.125,6c12.1802063,3.8302994,21.1588058-2.7919006,23.375-5.2082977"
		/>
	<path class="st1" d="M106.4601974,89.1855011"/>
	<path class="st1" d="M119.4601974,94.8105011"/>
	<path class="st1" d="M110.7919006,84.1072006c4.3077011-2.4960022,12.3859024,4.8409958,19.0205994,1.7202988
		c-0.8343048-0.5121994-8.572998-6.0114975-10.9910965-4.381897c-2.4181061,1.6296005-3.6473007-2.9394989-9.9345016,1.3092957"/>
	<path class="st1" d="M114.4396973,80.9322968c-4.5475006,1.6436996-4.4736938,5.5025024-4.4736938,5.5025024"/>
	<path class="st1" d="M117.9097977,81.800499l-1.3695984,2.4520035c1.0835037-0.3207016,5.6059036-2.3336029,5.6059036-2.3336029
		c-0.7318039,1.0567017-2.1351013,3.1486969-2.1351013,3.1486969c1.3218002-0.162796,5.5065994-1.4916992,5.5065994-1.4916992
		l-1.7087021,2.5767059l4.0934982-1.2190018l-0.346199,1.4602966"/>
	<path class="st1" d="M113.2202988,83.5866013c0.9914017-0.8116989,2.1301041-1.5122986,3.4227982-1.9918976"/>
	<path class="st1" d="M119.530899,77.2925034c4.4413986-3.363205,9.7393951-4.755806,9.7393951-4.755806"/>
	<path class="st2" d="M77.3262024,91.9887009c-0.2229004,0.2042999-0.4326019,0.4166946-0.614502,0.6450958
		c0.0709,0.2966003,0.2231979,0.9610062,0.405098,1.8862c-0.0150986-0.2011948-0.031601-0.402298-0.031601-0.6052933
		C77.0851974,93.2627029,77.1728973,92.620903,77.3262024,91.9887009z"/>
	<path class="st3" d="M111.4115982,70.8419037c-4.8344955-4.0908051-17.0552979-11.1531029-29.3264008-9.1772041
		c4.9453049,4.3929024,6.5056,10.4340019,6.9962006,14.0172005c-7.6741943,2.4456024-13.3983002,7.5062027-16.9825974,14.8144989
		c-3.6297989-0.6715012-9.8123016-1.1753006-15.9303017,1.2933044
		c19.9166985,0.4166946,19.8334007,24.6666946,19.8334007,24.6666946
		c3.2404022-5.6707001,2.3022995-15.0326996,1.4261017-20.2285995c-0.1641006-0.5606995-0.267601-1.1304016-0.311203-1.7078018
		c-0.1819-0.9251938-0.334198-1.5895996-0.405098-1.8862c0.1819-0.2284012,0.3916016-0.4407959,0.614502-0.6450958
		c1.9730988-8.1353989,16.2742004-14.4489975,33.6339951-14.4489975c11.9539032,0,22.453804,2.9957962,28.4831009,7.5162964
		c0.2409058-0.0767975,0.4918976-0.1421967,0.7252045-0.2246017c4.5281982-1.5981979,9.0339966-3.9816971,11.2765045-6.1162949
		c0.0480957-0.0453033,0.0920868-0.0903015,0.1379852-0.1355057c0.1437073-0.1422043,0.2761993-0.2829971,0.398407-0.4223938
		c0.0503998-0.0575027,0.1026001-0.1150055,0.1492004-0.1721039c0.1504974-0.1840973,0.2872009-0.3660965,0.3956909-0.5435028
		C152.6248016,74.0960007,135.5379944,69.5456009,111.4115982,70.8419037z"/>
	<path class="st4" d="M77.3262024,91.9887009c2.8342972-2.5970993,8.6989975-3.296402,10.562294-3.2406998
		c-1.3606949,1.4109955-4.5,4.3999023-7.428299,5.25c9.4471054,2.9708023,16.9657059-0.3460999,20.8993988-3.111702
		l0.3280029,0.0521011c14.5765991,4.5073013,31.9937973-1.924202,30.3559036-4.2320023c0,0,1.6473999-0.2258987,3.7268982-0.6741943
		l-0.6029053,0.3089981c0.9804993-0.2574005,1.9952087-0.5614014,3.0184021-0.8959045
		c0.4266052-0.1170959,0.8399048-0.2561951,1.2574005-0.3892975c-6.0292969-4.5205002-16.5291977-7.5162964-28.4831009-7.5162964
		C93.6004028,77.5397034,79.2993011,83.853302,77.3262024,91.9887009z"/>
	<path class="st3" d="M77.4280014,96.2277985c-0.1074982-0.6374969-0.2134018-1.2102966-0.311203-1.7078018
		C77.1604004,95.0973969,77.2639008,95.667099,77.4280014,96.2277985z"/>
	<path class="st5" d="M89.9188004,63.2941017c8.0465012,0.9612007,15.2894974,5.0083961,19.2042999,8.0078011
		c-0.5795975-0.0465088-2.7984009,0.2034912-2.7984009,0.2034912
		C104.1060028,68.9429016,95.8565979,64.9264984,89.9188004,63.2941017z"/>
	<path class="st5" d="M148.7977905,78.6993027l1.82901-1.0689087c-2.8332977-2.25-9.8666077-4.4924927-22.4589996-5.373497
		C138.5018005,74.1721039,146.3143005,77.0261993,148.7977905,78.6993027z"/>
	<path class="st5" d="M127.7337952,73.4532013c0.6455078,1.4034958-0.4064941,3.5699997-2.3498917,4.8390961
		c-1.9434052,1.2690964-4.0419998,1.1601028-4.6875-0.2432938c-0.645607-1.4035034,0.406395-3.5699997,2.3498001-4.8392029
		C124.989502,71.9408035,127.0881958,72.0497971,127.7337952,73.4532013z"/>
	<path class="st6" d="M125.5428009,75.8055038c0.4060974,0.8826981-0.2556992,2.2453995-1.4778976,3.0434952
		c-1.2223053,0.7983017-2.5422058,0.7296982-2.9483032-0.1529999s0.2556992-2.2453995,1.4778976-3.043602
		C123.816803,74.8542023,125.1368027,74.9227982,125.5428009,75.8055038z"/>
	
		<ellipse transform="matrix(0.9997219 -0.0235839 0.0235839 0.9997219 -1.76748 2.911443)" class="st5" cx="122.5497513" cy="76.3897781" rx="0.9837236" ry="1.1782792"/>
	<path class="st7" d="M127.7337952,73.4532013c0.6455078,1.4034958-0.4064941,3.5699997-2.3498917,4.8390961
		c-1.9434052,1.2690964-4.0419998,1.1601028-4.6875-0.2432938c-0.645607-1.4035034,0.406395-3.5699997,2.3498001-4.8392029
		C124.989502,71.9408035,127.0881958,72.0497971,127.7337952,73.4532013z"/>
	<path class="st7" d="M127.7337952,73.4532013c0.6455078,1.4034958-0.4064941,3.5699997-2.3498917,4.8390961
		c-1.9434052,1.2690964-4.0419998,1.1601028-4.6875-0.2432938c-0.645607-1.4035034,0.406395-3.5699997,2.3498001-4.8392029
		C124.989502,71.9408035,127.0881958,72.0497971,127.7337952,73.4532013z"/>
	<path class="st3" d="M130.7245026,72.3286972c-1.5559998-0.4419937-3.1510086-0.7473984-8.1393051-0.365303
		c-4.9882965,0.382103-3.7901993,5.3727036-3.7901993,5.3727036l1.0984039-0.2350006
		c2.452301-2.6329956,7.7656937-4.0434952,7.7656937-4.0434952L130.7245026,72.3286972z"/>
	<path class="st8" d="M114.0226974,80.893898l-2.1041946,1.5834045l-1.1266022,1.6298981
		c4.3077011-2.4960022,12.3859024,4.8409958,19.0205994,1.7202988c-0.8343048-0.5121994-8.572998-6.0114975-10.9910965-4.381897
		c-1.5276031,1.0293961-2.5807037-0.4148026-4.7341003-0.5471039"/>
	<path class="st9" d="M106.5018997,74.4602966c-7,2.6666031-7.7917023,10.3333054-7.7917023,10.3333054"/>
	<path class="_x0030__x002E_25_x0020_bl_x0020_keyline_x0020_10" d="M104.2117996,74.2538986C97.3690033,77.3013992,97,85,97,85"/>
	<path class="st9" d="M101.6875992,90.9384003c14.5766983,4.5073013,31.9937973-1.924202,30.3559036-4.2320023
		c0,0,4.5833893-0.625,8.125-1.875c5.4565887-1.9258957,10.8921967-4.9934006,12.3578949-7.389801
		c0.0984039-3.3455963-16.9884033-7.8959961-41.1147003-6.5996933c-4.8345947-4.0908051-17.0552979-11.1531029-29.3264999-9.1772041
		c4.9454041,4.3929024,6.5056992,10.4340019,6.9962997,14.0172005c-7.6741943,2.4456024-13.3983994,7.5062027-16.9825974,14.8144989
		c-3.6298981-0.6715012-9.8124008-1.1753006-15.9304008,1.2933044
		c19.9166985,0.4166946,19.8334007,24.6666946,19.8334007,24.6666946c4.3776016-7.6607971,1.129097-22.0670013,0.7098007-23.8226013
		c2.498497-3.1357956,9.185997-3.9482956,11.185997-3.8857956"/>
	<path class="st9" d="M88.5851974,87.9980011c0,0-4.25,4.875-8.125,6c12.1802063,3.8302994,21.1588058-2.7919006,23.375-5.2082977"
		/>
	<path class="st9" d="M106.4601974,89.1855011"/>
	<path class="st9" d="M119.4601974,94.8105011"/>
	<path class="st9" d="M110.7919006,84.1072006c4.3077011-2.4960022,12.3859024,4.8409958,19.0205994,1.7202988
		c-0.8343048-0.5121994-8.572998-6.0114975-10.9910965-4.381897c-2.4181061,1.6296005-3.6473007-2.9394989-9.9345016,1.3092957"/>
	<path class="st9" d="M114.4396973,80.9322968c-4.5475006,1.6436996-4.4736938,5.5025024-4.4736938,5.5025024"/>
	<path class="st9" d="M117.9097977,81.800499l-1.3695984,2.4520035c1.0835037-0.3207016,5.6059036-2.3336029,5.6059036-2.3336029
		c-0.7318039,1.0567017-2.1351013,3.1486969-2.1351013,3.1486969c1.3218002-0.162796,5.5065994-1.4916992,5.5065994-1.4916992
		l-1.7087021,2.5767059l4.0934982-1.2190018l-0.346199,1.4602966"/>
	<path class="st9" d="M113.2202988,83.5866013c0.9914017-0.8116989,2.1301041-1.5122986,3.4227982-1.9918976"/>
	<path class="st9" d="M118.4256973,75.6443024c3.7795029-3.4057007,8.4917984-5.0850983,8.4917984-5.0850983"/>
	<path class="st9" d="M119.530899,77.2925034c4.4413986-3.363205,9.7393951-4.755806,9.7393951-4.755806"/>
</g>
</svg>
